%YAML 1.1
%TAG !u! tag:unity3d.com,2011:
--- !u!114 &11400000
MonoBehaviour:
  m_ObjectHideFlags: 0
  m_CorrespondingSourceObject: {fileID: 0}
  m_PrefabInstance: {fileID: 0}
  m_PrefabAsset: {fileID: 0}
  m_GameObject: {fileID: 0}
  m_Enabled: 1
  m_EditorHideFlags: 0
  m_Script: {fileID: 11500000, guid: 338f7a197cf3d614680de460948a1476, type: 3}
  m_Name: BonesData
  m_EditorClassIdentifier: 
  bones:
  - _sprite: {fileID: 21300000, guid: efd8e4e7f0c923c4c88e50738cb61051, type: 3}
    _english: "Grandma had been lost for a while before she died from senile dementia,
      long before we scattered her bones in the river. When the doctors told us what
      she had, I just thought that she would lose her memories, but I didn\u2019t
      know that she would also lose her ability to be herself and to be present. "
    _spanish: "Mi abuela llevaba perdida mucho tiempo antes de que muriese a causa
      de su demencia senil y esparciesemos sus huesos por el r\xEDo.  Cuando nos
      dijeron lo que ten\xEDa pod\xEDa imaginarme que perder\xEDa sus recuerdos,
      pero no me pod\xEDa imaginar que perder\xEDa tambi\xE9n su capacidad de ser
      y de estar presente. "
    _catalan: "Ma iaia estava perduda desde feia molt de temps, molt abans de que
      la demencia senil la mat\xE9s i escampessim els seus ossos pel riu. Quan ens
      van dir el que ten\xEDa, jo pensava que simplement perdria els records. Per\xF2
      realment el que va perdre va ser la seva capacitat d'\xE9sser i els seus records
      nom\xE9s en van ser la conseq\xFC\xE8ncia. "
    _item: {fileID: 436698304217585394, guid: 4136a20689cfc3c45ab77140ebce3cae, type: 3}
  - _sprite: {fileID: 21300000, guid: 03bcd54f250289a43bfab687c40ba777, type: 3}
    _english: 'During her last days she was always smiling, but it was such a strange
      smile; forced, halfway between a smile and a grimace on the verge of bursting
      into tears. She seemed both full of joy and deeply miserable at the same time,
      although I doubt she was herself enough for any of those feelings to make sense. '
    _spanish: "En sus \xFAltimos d\xEDas siempre estaba sonriendo, pero era una sonrisa
      extra\xF1a; forzada, a medio camino entre una sonrisa y una mueca a punto de
      estallar en llanto. Parec\xEDa muy feliz y desconsoladamente triste a la vez,
      pero no s\xE9 si pod\xEDa entender el mundo tanto como para estar de ninguna
      manera ya. "
    _catalan: "Una cosa que em posava la pell de gallina era que els \xFAltims dies
      ma iaia tenia una expressi\xF3 extrany\xEDssima; era un somriure for\xE7at,
      a mig cam\xED entre riure ben fort i la ganyota que poses quan comen\xE7es
      a plorar. Semblava que est\xE9s molt contenta i s\xFAper trista a la vegada,
      pero no s\xE9. Ja no semblava que fos capa\xE7 d\u2019entendre el m\xF3n tan
      profundament com per sentir-se de cap manera. "
    _item: {fileID: 3160313553101765256, guid: e322b23f3e064624fa16d3f653ce239a, type: 3}
  - _sprite: {fileID: 21300000, guid: 614c82a9a28d4f440bb44854bbf67516, type: 3}
    _english: "I don\u2019t know what was going through her head in her last moments,
      but whenever I looked at her in the eyes I felt that there was no humanity
      left there for us to say goodbye to. By then, my dad and my grandpa were the
      ones feeling all the pain that she wasn\u2019t fit to know how to feel anymore. "
    _spanish: "No s\xE9 que pasar\xEDa por su cabeza en esos \xFAltimos momentos,
      pero sus ojos eran ilegibles, como los de un animal salvaje. Ya no le quedaba
      humanidad de la que despedirnos. Para entonces, mi padre y mi abuelo estaban
      sintiendo todo el dolor que ella ya no recordaba c\xF3mo sentir. "
    _catalan: "Aquests \xFAltims dies no s\xE9 que li passava pel cap a ma iaia,
      per\xF2 mirar-la als ulls era com mirar als d\u2019un animal salvatge. Ja no
      hi quedava humanitat a la que dir-li ad\xE9u. Mun pare i mun iaio estaven al
      seu costat, sentint-se de totes les maneres que ella s\u2019hauria estat sentint
      si hagu\xE9s sigut conscient de tot el que estava perdent. "
    _item: {fileID: 773343945987978203, guid: f73da820c8e8b95408a97f11e86cc1cb, type: 3}
  - _sprite: {fileID: 21300000, guid: 2208e32a094560f42bcd423a841610d5, type: 3}
    _english: "It felt like for every memory that she lost in the muddy water of
      her mind, my dad and grandpa would fish them out and treasure for themselves.
      During the last days before she passed away, they wouldn\u2019t stop telling
      me stories from when grandma was young. Meanwhile, she would be looking at
      us with that uncanny smile on her face. "
    _spanish: "Era como si por cada recuerdo que se perd\xEDa para siempre en el
      fondo de su cerebro, ellos -mi padre y mi abuelo- lo encontraban.  En sus \xFAltimos
      d\xEDas no pod\xEDan parar de contarme historias que les hab\xEDa contado sobre
      su infancia, mientras ella nos miraba y sonre\xEDa con su extra\xF1a expresi\xF3n. "
    _catalan: "Era com si per cada record que perd\xEDa, mun pare i mun iaio se\u2019l
      trobaven i se\u2019l guard\xE0ven. Mentre ma iaia passava els seus \xFAltims
      dies, ells m\u2019anaven explicant hist\xF2ries de quan ella era jove. I de
      mentres, ella ens mirava amb el seu somriure fora d\u2019aquest m\xF3n. "
    _item: {fileID: 2518341985681315541, guid: b40bff2e28678d94997f13292ae37f52, type: 3}
  - _sprite: {fileID: 21300000, guid: f8b2e110baa84554bb6b454ac9f0512f, type: 3}
    _english: 'My grandma was a former pro cyclist, and along with my dad they would
      often go out on rides together.  Since she passed away, my dad goes riding
      a few times every week and gets super angry if he can''t. To be honest, I''m
      not sure if going out on the bike comforts him or if it just hurts. '
    _spanish: "Mi abuela era ciclista de joven, y mi padre y ella sal\xEDan muchas
      veces juntos a dar vueltas con la bici.  Desde que muri\xF3, mi padre sale
      con la bici todas las semanas y se enfada un mont\xF3n si no puede. La verdad
      es que no tengo muy claro si salir en bici le reconforta o si solo duele. "
    _catalan: "Ma iaia era ciclista de jove, i de tant en tant sort\xEDen amb mun
      pare a donar tombs amb la bici. Des de que no hi \xE9s, mun pare se\u2019n
      va amb la bici totes les setmanes i s\u2019enfada un munt si no pot sortir.
      No tinc super clar si anar en bici el reconforta, o si nom\xE9s fa mal. "
    _item: {fileID: 8747351991941133581, guid: ffafe1fd06b8587448aa206a13c44cd0, type: 3}
  - _sprite: {fileID: 21300000, guid: 3890e0c6383908046940665a1c8abfa0, type: 3}
    _english: "Grandma was super picky about food. When grandpa cooked, he had to
      make double; a meal for everyone, and a special meal just for her. He didn\u2019t
      mind, he seemed genuinely happy to be able to spoil her every day.  Every time
      I visit him now, we order take-out. He says that he\u2019s too old, that cooking
      is pointless for the little appetite that he has now. "
    _spanish: "Mi abuela era muy quisquillosa con la comida, as\xED que cuando mi
      abuelo cocinaba siempre ten\xEDa que hacer el doble; una comida para todos,
      y otra especial para ella. Pero no le importaba, le encantaba cocinar y le
      encantaba mimar a mi abuela. Ahora cada vez que voy a comer a su casa pedimos
      comida a domicilio. Dice que no le apetece cocinar nunca ya, que para el poco
      apetito que tiene no le compensa. "
    _catalan: "A l\u2019hora de dinar, mun iaio sempre havia de fer el doble de plats
      diferents; uns per a nosaltres, i un per a la iaia perque era molt especial
      amb el menjar. Per\xF2 al iaio li donava igual; li encantava cuinar, i tamb\xE9
      li encantava mimar a la iaia sempre que tenia oportunitat. Ara, sempre que
      vaig a veure al iaio demanem menjar per emportar. Ell diu que no t\xE9 ganes
      de cuinar, que ja no t\xE9 gana mai i que no li surt a compte. "
    _item: {fileID: 8465847267266642400, guid: 1ae3d30fd8e64e14b8c2c6e03e23c8f3, type: 3}
  - _sprite: {fileID: 21300000, guid: ce2207591b970e94e9b81747bf395ea6, type: 3}
    _english: "I believe that grandma didn\u2019t suffer during her last days. Losing
      her memories only hurt for those around her, since her illness freed her from
      being aware of what was going on. I keep her memories treasured too, but next
      to the memories of how my dad and grandpa are feeling about her loss. This
      warmth that hurts a little will be with me until I die or until grandma\u2019s
      illness takes over me too. "
    _spanish: "Creo de verdad que mi abuela no sufri\xF3 durante sus \xFAltimos d\xEDas,
      perder sus recuerdos s\xF3lo nos doli\xF3 a todos a su alrededor. Su fantasma
      es un calorcito que nos acompa\xF1a a mi padre, mi abuelo y a mi en el pecho
      y que nos va a doler hasta que nos muramos o hasta que lo perdamos como ella."
    _catalan: "Crec que ma iaia no ho va passar malament els dies abans de morir,
      perdre els seus records nom\xE9s va ser un cop fort per als que est\xE0vem
      al seu voltant. Ens en recordem molt d\u2019ella i no ens podrem separar mai
      m\xE9s d\u2019aquests records, tot i que s\xF3n precisament el que ens fa passar-ho
      malament. Per a que pari de fer mal ens haurem de morir, o heredar la malaltia
      que ens va fer perdre a la iaia. "
    _item: {fileID: 1835662186191454468, guid: 96a1a6d68d54f5342ba65985825a2621, type: 3}
