%YAML 1.1
%TAG !u! tag:unity3d.com,2011:
--- !u!114 &11400000
MonoBehaviour:
  m_ObjectHideFlags: 0
  m_CorrespondingSourceObject: {fileID: 0}
  m_PrefabInstance: {fileID: 0}
  m_PrefabAsset: {fileID: 0}
  m_GameObject: {fileID: 0}
  m_Enabled: 1
  m_EditorHideFlags: 0
  m_Script: {fileID: 11500000, guid: f70b44038f980364f970d081baee9c1b, type: 3}
  m_Name: PescaditosData
  m_EditorClassIdentifier: 
  pescaditos:
  - _sprite: {fileID: 21300000, guid: a295ae371b743604ba625a3f45b0eb97, type: 3}
    _english: "You\u2019ve caught a cloudfish"
    _spanish: Has pescado un pez llave
    _catalan: Has pescat un peix clau
  - _sprite: {fileID: 21300000, guid: 016e038731b7aff46a6bc48f18a048d8, type: 3}
    _english: "You\u2019ve caught a prune carp"
    _spanish: Has pescado una carpa pruna
    _catalan: Has pescat una carpa pruna
  - _sprite: {fileID: 21300000, guid: 2747d2ef7ff4d2a4ca5bbd2ca643e319, type: 3}
    _english: "You\u2019ve caught a blood eel"
    _spanish: Has pescado una anguila de sangre
    _catalan: Has pescat una anguila de sang
