%YAML 1.1
%TAG !u! tag:unity3d.com,2011:
--- !u!74 &7400000
AnimationClip:
  m_ObjectHideFlags: 0
  m_CorrespondingSourceObject: {fileID: 0}
  m_PrefabInstance: {fileID: 0}
  m_PrefabAsset: {fileID: 0}
  m_Name: Jarroncitos_3
  serializedVersion: 6
  m_Legacy: 0
  m_Compressed: 0
  m_UseHighQualityCurve: 1
  m_RotationCurves: []
  m_CompressedRotationCurves: []
  m_EulerCurves: []
  m_PositionCurves: []
  m_ScaleCurves: []
  m_FloatCurves: []
  m_PPtrCurves:
  - curve:
    - time: 0
      value: {fileID: 21300000, guid: 67982e1a83f8bf9408a2d48379156556, type: 3}
    - time: 0.16666667
      value: {fileID: 21300000, guid: fd5b09e2cab698b4caba313013ab8128, type: 3}
    - time: 0.33333334
      value: {fileID: 21300000, guid: b41d66d94d0d1dc4491f57d9be0bf683, type: 3}
    - time: 0.5
      value: {fileID: 21300000, guid: db82e0c917997314a85724a71e7bbb77, type: 3}
    - time: 0.6666667
      value: {fileID: 21300000, guid: fd84aaebb7afa444b9cda17de6eeb27b, type: 3}
    - time: 0.8333333
      value: {fileID: 21300000, guid: 09fa0be00694ceb4c8cf691c531a1741, type: 3}
    - time: 1
      value: {fileID: 21300000, guid: 8198562cdbbdb204a898a707d640f258, type: 3}
    - time: 1.1666666
      value: {fileID: 21300000, guid: 5daf7f628fe299246a5450c3b73b978f, type: 3}
    - time: 1.3333334
      value: {fileID: 21300000, guid: 67982e1a83f8bf9408a2d48379156556, type: 3}
    attribute: m_Sprite
    path: 
    classID: 212
    script: {fileID: 0}
  m_SampleRate: 60
  m_WrapMode: 0
  m_Bounds:
    m_Center: {x: 0, y: 0, z: 0}
    m_Extent: {x: 0, y: 0, z: 0}
  m_ClipBindingConstant:
    genericBindings:
    - serializedVersion: 2
      path: 0
      attribute: 0
      script: {fileID: 0}
      typeID: 212
      customType: 23
      isPPtrCurve: 1
    pptrCurveMapping:
    - {fileID: 21300000, guid: 67982e1a83f8bf9408a2d48379156556, type: 3}
    - {fileID: 21300000, guid: fd5b09e2cab698b4caba313013ab8128, type: 3}
    - {fileID: 21300000, guid: b41d66d94d0d1dc4491f57d9be0bf683, type: 3}
    - {fileID: 21300000, guid: db82e0c917997314a85724a71e7bbb77, type: 3}
    - {fileID: 21300000, guid: fd84aaebb7afa444b9cda17de6eeb27b, type: 3}
    - {fileID: 21300000, guid: 09fa0be00694ceb4c8cf691c531a1741, type: 3}
    - {fileID: 21300000, guid: 8198562cdbbdb204a898a707d640f258, type: 3}
    - {fileID: 21300000, guid: 5daf7f628fe299246a5450c3b73b978f, type: 3}
    - {fileID: 21300000, guid: 67982e1a83f8bf9408a2d48379156556, type: 3}
  m_AnimationClipSettings:
    serializedVersion: 2
    m_AdditiveReferencePoseClip: {fileID: 0}
    m_AdditiveReferencePoseTime: 0
    m_StartTime: 0
    m_StopTime: 1.35
    m_OrientationOffsetY: 0
    m_Level: 0
    m_CycleOffset: 0
    m_HasAdditiveReferencePose: 0
    m_LoopTime: 1
    m_LoopBlend: 1
    m_LoopBlendOrientation: 0
    m_LoopBlendPositionY: 0
    m_LoopBlendPositionXZ: 0
    m_KeepOriginalOrientation: 0
    m_KeepOriginalPositionY: 1
    m_KeepOriginalPositionXZ: 0
    m_HeightFromFeet: 0
    m_Mirror: 0
  m_EditorCurves: []
  m_EulerEditorCurves: []
  m_HasGenericRootTransform: 0
  m_HasMotionFloatCurves: 0
  m_Events: []
