%YAML 1.1
%TAG !u! tag:unity3d.com,2011:
--- !u!74 &7400000
AnimationClip:
  m_ObjectHideFlags: 0
  m_CorrespondingSourceObject: {fileID: 0}
  m_PrefabInstance: {fileID: 0}
  m_PrefabAsset: {fileID: 0}
  m_Name: Jarroncitos_7
  serializedVersion: 6
  m_Legacy: 0
  m_Compressed: 0
  m_UseHighQualityCurve: 1
  m_RotationCurves: []
  m_CompressedRotationCurves: []
  m_EulerCurves: []
  m_PositionCurves: []
  m_ScaleCurves: []
  m_FloatCurves: []
  m_PPtrCurves:
  - curve:
    - time: 0
      value: {fileID: 21300000, guid: 12795e8fe6d4fbc4d98942c3deab7969, type: 3}
    - time: 0.16666667
      value: {fileID: 21300000, guid: 46b5ee0183ab7c14a90dd68b702b40be, type: 3}
    - time: 0.33333334
      value: {fileID: 21300000, guid: 27937ccc0c3b723499b1efb0a73102af, type: 3}
    - time: 0.5
      value: {fileID: 21300000, guid: b7ec950d8f3832d4fb6bf951bed485e8, type: 3}
    - time: 0.6666667
      value: {fileID: 21300000, guid: ea3443fa65260df43b584ff02c0713c7, type: 3}
    - time: 0.8333333
      value: {fileID: 21300000, guid: 97e46b92a3cb6aa49be1278634b7f357, type: 3}
    - time: 1
      value: {fileID: 21300000, guid: 5b77c42beab5e2e4ea2ecc16030c3005, type: 3}
    - time: 1.1666666
      value: {fileID: 21300000, guid: 99a958314b18d2b41a179127eec56d66, type: 3}
    - time: 1.3333334
      value: {fileID: 21300000, guid: 12795e8fe6d4fbc4d98942c3deab7969, type: 3}
    attribute: m_Sprite
    path: 
    classID: 212
    script: {fileID: 0}
  m_SampleRate: 60
  m_WrapMode: 0
  m_Bounds:
    m_Center: {x: 0, y: 0, z: 0}
    m_Extent: {x: 0, y: 0, z: 0}
  m_ClipBindingConstant:
    genericBindings:
    - serializedVersion: 2
      path: 0
      attribute: 0
      script: {fileID: 0}
      typeID: 212
      customType: 23
      isPPtrCurve: 1
    pptrCurveMapping:
    - {fileID: 21300000, guid: 12795e8fe6d4fbc4d98942c3deab7969, type: 3}
    - {fileID: 21300000, guid: 46b5ee0183ab7c14a90dd68b702b40be, type: 3}
    - {fileID: 21300000, guid: 27937ccc0c3b723499b1efb0a73102af, type: 3}
    - {fileID: 21300000, guid: b7ec950d8f3832d4fb6bf951bed485e8, type: 3}
    - {fileID: 21300000, guid: ea3443fa65260df43b584ff02c0713c7, type: 3}
    - {fileID: 21300000, guid: 97e46b92a3cb6aa49be1278634b7f357, type: 3}
    - {fileID: 21300000, guid: 5b77c42beab5e2e4ea2ecc16030c3005, type: 3}
    - {fileID: 21300000, guid: 99a958314b18d2b41a179127eec56d66, type: 3}
    - {fileID: 21300000, guid: 12795e8fe6d4fbc4d98942c3deab7969, type: 3}
  m_AnimationClipSettings:
    serializedVersion: 2
    m_AdditiveReferencePoseClip: {fileID: 0}
    m_AdditiveReferencePoseTime: 0
    m_StartTime: 0
    m_StopTime: 1.35
    m_OrientationOffsetY: 0
    m_Level: 0
    m_CycleOffset: 0
    m_HasAdditiveReferencePose: 0
    m_LoopTime: 1
    m_LoopBlend: 1
    m_LoopBlendOrientation: 0
    m_LoopBlendPositionY: 0
    m_LoopBlendPositionXZ: 0
    m_KeepOriginalOrientation: 0
    m_KeepOriginalPositionY: 1
    m_KeepOriginalPositionXZ: 0
    m_HeightFromFeet: 0
    m_Mirror: 0
  m_EditorCurves: []
  m_EulerEditorCurves: []
  m_HasGenericRootTransform: 0
  m_HasMotionFloatCurves: 0
  m_Events: []
