%YAML 1.1
%TAG !u! tag:unity3d.com,2011:
--- !u!74 &7400000
AnimationClip:
  m_ObjectHideFlags: 0
  m_CorrespondingSourceObject: {fileID: 0}
  m_PrefabInstance: {fileID: 0}
  m_PrefabAsset: {fileID: 0}
  m_Name: Jarroncitos_6
  serializedVersion: 6
  m_Legacy: 0
  m_Compressed: 0
  m_UseHighQualityCurve: 1
  m_RotationCurves: []
  m_CompressedRotationCurves: []
  m_EulerCurves: []
  m_PositionCurves: []
  m_ScaleCurves: []
  m_FloatCurves: []
  m_PPtrCurves:
  - curve:
    - time: 0
      value: {fileID: 21300000, guid: 591caaf985761e5489d24285bff71844, type: 3}
    - time: 0.16666667
      value: {fileID: 21300000, guid: 6c74f54274c27174eb6721040aebd1fa, type: 3}
    - time: 0.33333334
      value: {fileID: 21300000, guid: b48413be11b905a4498185834912c616, type: 3}
    - time: 0.5
      value: {fileID: 21300000, guid: f6d0c9dd397dc0848a9a01031428940d, type: 3}
    - time: 0.6666667
      value: {fileID: 21300000, guid: 1c0cd7861367525489797b165d840b29, type: 3}
    - time: 0.8333333
      value: {fileID: 21300000, guid: 039870b57bf3e82438f618b51accb70e, type: 3}
    - time: 1
      value: {fileID: 21300000, guid: 380ab67d6243e404ea3e9ac95091a70d, type: 3}
    - time: 1.1666666
      value: {fileID: 21300000, guid: acec3794362489d41864c7ac62af9f08, type: 3}
    - time: 1.3333334
      value: {fileID: 21300000, guid: 591caaf985761e5489d24285bff71844, type: 3}
    attribute: m_Sprite
    path: 
    classID: 212
    script: {fileID: 0}
  m_SampleRate: 60
  m_WrapMode: 0
  m_Bounds:
    m_Center: {x: 0, y: 0, z: 0}
    m_Extent: {x: 0, y: 0, z: 0}
  m_ClipBindingConstant:
    genericBindings:
    - serializedVersion: 2
      path: 0
      attribute: 0
      script: {fileID: 0}
      typeID: 212
      customType: 23
      isPPtrCurve: 1
    pptrCurveMapping:
    - {fileID: 21300000, guid: 591caaf985761e5489d24285bff71844, type: 3}
    - {fileID: 21300000, guid: 6c74f54274c27174eb6721040aebd1fa, type: 3}
    - {fileID: 21300000, guid: b48413be11b905a4498185834912c616, type: 3}
    - {fileID: 21300000, guid: f6d0c9dd397dc0848a9a01031428940d, type: 3}
    - {fileID: 21300000, guid: 1c0cd7861367525489797b165d840b29, type: 3}
    - {fileID: 21300000, guid: 039870b57bf3e82438f618b51accb70e, type: 3}
    - {fileID: 21300000, guid: 380ab67d6243e404ea3e9ac95091a70d, type: 3}
    - {fileID: 21300000, guid: acec3794362489d41864c7ac62af9f08, type: 3}
    - {fileID: 21300000, guid: 591caaf985761e5489d24285bff71844, type: 3}
  m_AnimationClipSettings:
    serializedVersion: 2
    m_AdditiveReferencePoseClip: {fileID: 0}
    m_AdditiveReferencePoseTime: 0
    m_StartTime: 0
    m_StopTime: 1.35
    m_OrientationOffsetY: 0
    m_Level: 0
    m_CycleOffset: 0
    m_HasAdditiveReferencePose: 0
    m_LoopTime: 1
    m_LoopBlend: 1
    m_LoopBlendOrientation: 0
    m_LoopBlendPositionY: 0
    m_LoopBlendPositionXZ: 0
    m_KeepOriginalOrientation: 0
    m_KeepOriginalPositionY: 1
    m_KeepOriginalPositionXZ: 0
    m_HeightFromFeet: 0
    m_Mirror: 0
  m_EditorCurves: []
  m_EulerEditorCurves: []
  m_HasGenericRootTransform: 0
  m_HasMotionFloatCurves: 0
  m_Events: []
