%YAML 1.1
%TAG !u! tag:unity3d.com,2011:
--- !u!1001 &2325260832366934744
PrefabInstance:
  m_ObjectHideFlags: 0
  serializedVersion: 2
  m_Modification:
    m_TransformParent: {fileID: 0}
    m_Modifications:
    - target: {fileID: 203505266887985634, guid: 08f1ebc99e2f7a54ea9749a67ba4be36,
        type: 3}
      propertyPath: m_SpriteTilingProperty.oldSize.x
      value: 0.99
      objectReference: {fileID: 0}
    - target: {fileID: 203505266887985634, guid: 08f1ebc99e2f7a54ea9749a67ba4be36,
        type: 3}
      propertyPath: m_SpriteTilingProperty.oldSize.y
      value: 2.16
      objectReference: {fileID: 0}
    - target: {fileID: 203505266887985634, guid: 08f1ebc99e2f7a54ea9749a67ba4be36,
        type: 3}
      propertyPath: m_Offset.y
      value: 0.063854694
      objectReference: {fileID: 0}
    - target: {fileID: 203505266887985634, guid: 08f1ebc99e2f7a54ea9749a67ba4be36,
        type: 3}
      propertyPath: m_Size.y
      value: 1.7022905
      objectReference: {fileID: 0}
    - target: {fileID: 203505266887985634, guid: 08f1ebc99e2f7a54ea9749a67ba4be36,
        type: 3}
      propertyPath: m_Offset.x
      value: 0.021271706
      objectReference: {fileID: 0}
    - target: {fileID: 203505266887985634, guid: 08f1ebc99e2f7a54ea9749a67ba4be36,
        type: 3}
      propertyPath: m_Size.x
      value: 1.0883837
      objectReference: {fileID: 0}
    - target: {fileID: 1240380940461065686, guid: 08f1ebc99e2f7a54ea9749a67ba4be36,
        type: 3}
      propertyPath: _outlineMaterial
      value: 
      objectReference: {fileID: 2100000, guid: 33499c019556e3149b16b76454f512e7, type: 2}
    - target: {fileID: 2205357719928998197, guid: 08f1ebc99e2f7a54ea9749a67ba4be36,
        type: 3}
      propertyPath: m_RootOrder
      value: 0
      objectReference: {fileID: 0}
    - target: {fileID: 2205357719928998197, guid: 08f1ebc99e2f7a54ea9749a67ba4be36,
        type: 3}
      propertyPath: m_LocalPosition.x
      value: 0
      objectReference: {fileID: 0}
    - target: {fileID: 2205357719928998197, guid: 08f1ebc99e2f7a54ea9749a67ba4be36,
        type: 3}
      propertyPath: m_LocalPosition.y
      value: 0
      objectReference: {fileID: 0}
    - target: {fileID: 2205357719928998197, guid: 08f1ebc99e2f7a54ea9749a67ba4be36,
        type: 3}
      propertyPath: m_LocalPosition.z
      value: 0
      objectReference: {fileID: 0}
    - target: {fileID: 2205357719928998197, guid: 08f1ebc99e2f7a54ea9749a67ba4be36,
        type: 3}
      propertyPath: m_LocalRotation.w
      value: 1
      objectReference: {fileID: 0}
    - target: {fileID: 2205357719928998197, guid: 08f1ebc99e2f7a54ea9749a67ba4be36,
        type: 3}
      propertyPath: m_LocalRotation.x
      value: 0
      objectReference: {fileID: 0}
    - target: {fileID: 2205357719928998197, guid: 08f1ebc99e2f7a54ea9749a67ba4be36,
        type: 3}
      propertyPath: m_LocalRotation.y
      value: 0
      objectReference: {fileID: 0}
    - target: {fileID: 2205357719928998197, guid: 08f1ebc99e2f7a54ea9749a67ba4be36,
        type: 3}
      propertyPath: m_LocalRotation.z
      value: 0
      objectReference: {fileID: 0}
    - target: {fileID: 2205357719928998197, guid: 08f1ebc99e2f7a54ea9749a67ba4be36,
        type: 3}
      propertyPath: m_LocalEulerAnglesHint.x
      value: 0
      objectReference: {fileID: 0}
    - target: {fileID: 2205357719928998197, guid: 08f1ebc99e2f7a54ea9749a67ba4be36,
        type: 3}
      propertyPath: m_LocalEulerAnglesHint.y
      value: 0
      objectReference: {fileID: 0}
    - target: {fileID: 2205357719928998197, guid: 08f1ebc99e2f7a54ea9749a67ba4be36,
        type: 3}
      propertyPath: m_LocalEulerAnglesHint.z
      value: 0
      objectReference: {fileID: 0}
    - target: {fileID: 3504243550321796712, guid: 08f1ebc99e2f7a54ea9749a67ba4be36,
        type: 3}
      propertyPath: m_Sprite
      value: 
      objectReference: {fileID: -1752099868105924259, guid: d6533afa6d46c214e861c0a8d47d3d01,
        type: 3}
    - target: {fileID: 3504243550321796712, guid: 08f1ebc99e2f7a54ea9749a67ba4be36,
        type: 3}
      propertyPath: m_SortingLayerID
      value: -610497987
      objectReference: {fileID: 0}
    - target: {fileID: 3504243550321796712, guid: 08f1ebc99e2f7a54ea9749a67ba4be36,
        type: 3}
      propertyPath: m_SortingLayer
      value: 5
      objectReference: {fileID: 0}
    - target: {fileID: 8652660361676627531, guid: 08f1ebc99e2f7a54ea9749a67ba4be36,
        type: 3}
      propertyPath: m_Name
      value: Espiga_5
      objectReference: {fileID: 0}
    m_RemovedComponents: []
  m_SourcePrefab: {fileID: 100100000, guid: 08f1ebc99e2f7a54ea9749a67ba4be36, type: 3}
